{
  "Metadata": {
    "Version": "2.2"
  },
  "DocumentHeader": {
    "Document": {
      "DocNumber": "RE99999",
      "DocType": "invoice",
      "IssueDate": "2021-12-31",
      "DueDate": "2022-01-14",
      "CurrencyCode": "EUR",
      "PaymentTermsNote": "Payment note"
    },
    "References": {
      "BuyerReference": "992-90009-96",
      "OrderReference": "00XXX / YYY / ZZZZZZZ"
    },
    "Supplier": {
      "Name": "Musterfirma GmbH",
      "StreetName": "Musterstraße 99",
      "CityName": "Musterstadt",
      "PostalZone": "99999",
      "CountryCode": "DE",
      "PartyTaxSchemeCompanyID": "DE123456789",
      "PartyLegalEntityCompanySchemeID": "0007",
      "PartyLegalEntityCompanyID": "DE123456789",
      "ContactName": "Hr. Mustermann",
      "ContactTelephone": "+49 (0) 999 99999-0",
      "ContactElectronicMail": "Kontakte@musterkunde.de"
    },
    "Customer": {
      "Name": "DB Cargo AG",
      "StreetName": "c/o Deutsche Bahn AG, DB SSC DE, Elisabeth-Schwarzhaupt-Platz 1",
      "CityName": "Berlin",
      "PostalZone": "10115",
      "CountryCode": "DE"
    },
    "Delivery": {
      "ActualDeliveryDate": "2021-12-31",
      "StreetName": "Senator Borttscheller Strasse 10",
      "CityName": "Bremerhaven",
      "PostalZone": "27568",
      "CountryCode": "DE"
    },
    "Payments": [
      {
        "PaymentID": "99999",
        "PayeeFinancialAccountID": "DE1234567890987654321",
        "PayeeFinancialAccountName": "Musterfirma GmbH",
        "FinancialInstitutionBranchID": "ABCDEFGHIJK"
      }
    ],
    "Tax": {
      "TotalAmount": "121.22",
      "SubTotals": [
        {
          "TaxableAmount": "638.00",
          "TaxAmount": "121.22",
          "TaxCategoryID": "S",
          "TaxCategoryPercent": "19"
        }
      ]
    },
    "Totals": {
      "LineExtensionAmount": "638.00",
      "TaxExclusiveAmount": "638.00",
      "TaxInclusiveAmount": "759.22",
      "PayableAmount": "759.22"
    }
  },
  "DocumentLines": [
    {
      "ID": "0",
      "Quantity": "1",
      "UnitCode": "EA",
      "LineExtensionAmount": "638.00",
      "SellersItemIdentificationID": "N/A",
      "Name": "Musterware",
      "TaxCategoryID": "S",
      "TaxCategoryPercent": "19",
      "Price": "638.0000"
    }
  ]
}